"{\"data\":[{\"id\":\"rd68k7\",\"url\":\"https://wallhaven.cc/w/rd68k7\",\"short_url\":\"https://whvn.cc/rd68k7\",\"views\":10,\"favorites\":9,\"source\":\"\",\"purity\":\"sfw\",\"category\":\"anime\",\"dimension_x\":2006,\"dimension_y\":1208,\"resolution\":\"2006x1208\",\"ratio\":\"1.66\",\"file_size\":374630,\"file_type\":\"image/jpeg\",\"created_at\":\"2021-11-17 10:29:09\",\"colors\":[\"#ffffff\",\"#abbcda\",\"#cccccc\",\"#999999\",\"#424153\"],\"path\":\"https://w.wallhaven.cc/full/rd/wallhaven-rd68k7.jpg\",\"thumbs\":{\"large\":\"https://th.wallhaven.cc/lg/rd/rd68k7.jpg\",\"original\":\"https://th.wallhaven.cc/orig/rd/rd68k7.jpg\",\"small\":\"https://th.wallhaven.cc/small/rd/rd68k7.jpg\"}},{\"id\":\"j3dgmy\",\"url\":\"https://wallhaven.cc/w/j3dgmy\",\"short_url\":\"https://whvn.cc/j3dgmy\",\"views\":10,\"favorites\":24,\"source\":\"\",\"purity\":\"sfw\",\"category\":\"anime\",\"dimension_x\":8000,\"dimension_y\":4394,\"resolution\":\"8000x4394\",\"ratio\":\"1.82\",\"file_size\":15570419,\"file_type\":\"image/jpeg\",\"created_at\":\"2021-11-17 10:29:09\",\"colors\":[\"#424153\",\"#000000\",\"#999999\",\"#996633\",\"#663300\"],\"path\":\"https://w.wallhaven.cc/full/j3/wallhaven-j3dgmy.jpg\",\"thumbs\":{\"large\":\"https://th.wallhaven.cc/lg/j3/j3dgmy.jpg\",\"original\":\"https://th.wallhaven.cc/orig/j3/j3dgmy.jpg\",\"small\":\"https://th.wallhaven.cc/small/j3/j3dgmy.jpg\"}},{\"id\":\"282mry\",\"url\":\"https://wallhaven.cc/w/282mry\",\"short_url\":\"https://whvn.cc/282mry\",\"views\":5,\"favorites\":8,\"source\":\"\",\"purity\":\"sfw\",\"category\":\"anime\",\"dimension_x\":2048,\"dimension_y\":1313,\"resolution\":\"2048x1313\",\"ratio\":\"1.56\",\"file_size\":1150715,\"file_type\":\"image/jpeg\",\"created_at\":\"2021-11-17 10:29:09\",\"colors\":[\"#424153\",\"#999999\",\"#cccccc\",\"#abbcda\",\"#000000\"],\"path\":\"https://w.wallhaven.cc/full/28/wallhaven-282mry.jpg\",\"thumbs\":{\"large\":\"https://th.wallhaven.cc/lg/28/282mry.jpg\",\"original\":\"https://th.wallhaven.cc/orig/28/282mry.jpg\",\"small\":\"https://th.wallhaven.cc/small/28/282mry.jpg\"}},{\"id\":\"y89dyg\",\"url\":\"https://wallhaven.cc/w/y89dyg\",\"short_url\":\"https://whvn.cc/y89dyg\",\"views\":9,\"favorites\":7,\"source\":\"https://www.artstation.com/artwork/48Zlnq\",\"purity\":\"sfw\",\"category\":\"general\",\"dimension_x\":3840,\"dimension_y\":2160,\"resolution\":\"3840x2160\",\"ratio\":\"1.78\",\"file_size\":2007641,\"file_type\":\"image/jpeg\",\"created_at\":\"2021-11-17 10:27:42\",\"colors\":[\"#990000\",\"#cc3333\",\"#424153\",\"#660000\",\"#000000\"],\"path\":\"https://w.wallhaven.cc/full/y8/wallhaven-y89dyg.jpg\",\"thumbs\":{\"large\":\"https://th.wallhaven.cc/lg/y8/y89dyg.jpg\",\"original\":\"https://th.wallhaven.cc/orig/y8/y89dyg.jpg\",\"small\":\"https://th.wallhaven.cc/small/y8/y89dyg.jpg\"}},{\"id\":\"q2oxx7\",\"url\":\"https://wallhaven.cc/w/q2oxx7\",\"short_url\":\"https://whvn.cc/q2oxx7\",\"views\":147,\"favorites\":10,\"source\":\"\",\"purity\":\"sfw\",\"category\":\"general\",\"dimension_x\":1920,\"dimension_y\":1080,\"resolution\":\"1920x1080\",\"ratio\":\"1.78\",\"file_size\":4122586,\"file_type\":\"image/png\",\"created_at\":\"2021-11-17 09:21:49\",\"colors\":[\"#cc3333\",\"#424153\",\"#ea4c88\",\"#000000\",\"#663300\"],\"path\":\"https://w.wallhaven.cc/full/q2/wallhaven-q2oxx7.png\",\"thumbs\":{\"large\":\"https://th.wallhaven.cc/lg/q2/q2oxx7.jpg\",\"original\":\"https://th.wallhaven.cc/orig/q2/q2oxx7.jpg\",\"small\":\"https://th.wallhaven.cc/small/q2/q2oxx7.jpg\"}},{\"id\":\"8ojqv1\",\"url\":\"https://wallhaven.cc/w/8ojqv1\",\"short_url\":\"https://whvn.cc/8ojqv1\",\"views\":68,\"favorites\":1,\"source\":\"\",\"purity\":\"sfw\",\"category\":\"anime\",\"dimension_x\":2480,\"dimension_y\":1748,\"resolution\":\"2480x1748\",\"ratio\":\"1.42\",\"file_size\":2222417,\"file_type\":\"image/jpeg\",\"created_at\":\"2021-11-17 07:09:09\",\"colors\":[\"#999999\",\"#cccccc\",\"#424153\",\"#333399\",\"#0066cc\"],\"path\":\"https://w.wallhaven.cc/full/8o/wallhaven-8ojqv1.jpg\",\"thumbs\":{\"large\":\"https://th.wallhaven.cc/lg/8o/8ojqv1.jpg\",\"original\":\"https://th.wallhaven.cc/orig/8o/8ojqv1.jpg\",\"small\":\"https://th.wallhaven.cc/small/8o/8ojqv1.jpg\"}},{\"id\":\"x89ro3\",\"url\":\"https://wallhaven.cc/w/x89ro3\",\"short_url\":\"https://whvn.cc/x89ro3\",\"views\":60,\"favorites\":2,\"source\":\"\",\"purity\":\"sfw\",\"category\":\"anime\",\"dimension_x\":2432,\"dimension_y\":1748,\"resolution\":\"2432x1748\",\"ratio\":\"1.39\",\"file_size\":9490157,\"file_type\":\"image/png\",\"created_at\":\"2021-11-17 07:05:36\",\"colors\":[\"#ffffff\",\"#424153\",\"#000000\",\"#fdadc7\",\"#e7d8b1\"],\"path\":\"https://w.wallhaven.cc/full/x8/wallhaven-x89ro3.png\",\"thumbs\":{\"large\":\"https://th.wallhaven.cc/lg/x8/x89ro3.jpg\",\"original\":\"https://th.wallhaven.cc/orig/x8/x89ro3.jpg\",\"small\":\"https://th.wallhaven.cc/small/x8/x89ro3.jpg\"}},{\"id\":\"pkge1m\",\"url\":\"https://wallhaven.cc/w/pkge1m\",\"short_url\":\"https://whvn.cc/pkge1m\",\"views\":49,\"favorites\":2,\"source\":\"\",\"purity\":\"sfw\",\"category\":\"anime\",\"dimension_x\":2472,\"dimension_y\":1744,\"resolution\":\"2472x1744\",\"ratio\":\"1.42\",\"file_size\":7704906,\"file_type\":\"image/png\",\"created_at\":\"2021-11-17 07:05:36\",\"colors\":[\"#ffffff\",\"#999999\",\"#e7d8b1\",\"#cccccc\",\"#424153\"],\"path\":\"https://w.wallhaven.cc/full/pk/wallhaven-pkge1m.png\",\"thumbs\":{\"large\":\"https://th.wallhaven.cc/lg/pk/pkge1m.jpg\",\"original\":\"https://th.wallhaven.cc/orig/pk/pkge1m.jpg\",\"small\":\"https://th.wallhaven.cc/small/pk/pkge1m.jpg\"}},{\"id\":\"m9y75y\",\"url\":\"https://wallhaven.cc/w/m9y75y\",\"short_url\":\"https://whvn.cc/m9y75y\",\"views\":44,\"favorites\":2,\"source\":\"\",\"purity\":\"sfw\",\"category\":\"anime\",\"dimension_x\":2024,\"dimension_y\":1673,\"resolution\":\"2024x1673\",\"ratio\":\"1.21\",\"file_size\":5758964,\"file_type\":\"image/png\",\"created_at\":\"2021-11-17 07:05:36\",\"colors\":[\"#e7d8b1\",\"#ffffff\",\"#999999\",\"#424153\",\"#fdadc7\"],\"path\":\"https://w.wallhaven.cc/full/m9/wallhaven-m9y75y.png\",\"thumbs\":{\"large\":\"https://th.wallhaven.cc/lg/m9/m9y75y.jpg\",\"original\":\"https://th.wallhaven.cc/orig/m9/m9y75y.jpg\",\"small\":\"https://th.wallhaven.cc/small/m9/m9y75y.jpg\"}},{\"id\":\"o3jpql\",\"url\":\"https://wallhaven.cc/w/o3jpql\",\"short_url\":\"https://whvn.cc/o3jpql\",\"views\":41,\"favorites\":0,\"source\":\"\",\"purity\":\"sfw\",\"category\":\"anime\",\"dimension_x\":1346,\"dimension_y\":1346,\"resolution\":\"1346x1346\",\"ratio\":\"1\",\"file_size\":3626145,\"file_type\":\"image/png\",\"created_at\":\"2021-11-17 07:05:36\",\"colors\":[\"#ffffff\",\"#e7d8b1\",\"#fdadc7\",\"#999999\",\"#ea4c88\"],\"path\":\"https://w.wallhaven.cc/full/o3/wallhaven-o3jpql.png\",\"thumbs\":{\"large\":\"https://th.wallhaven.cc/lg/o3/o3jpql.jpg\",\"original\":\"https://th.wallhaven.cc/orig/o3/o3jpql.jpg\",\"small\":\"https://th.wallhaven.cc/small/o3/o3jpql.jpg\"}},{\"id\":\"72lzve\",\"url\":\"https://wallhaven.cc/w/72lzve\",\"short_url\":\"https://whvn.cc/72lzve\",\"views\":37,\"favorites\":0,\"source\":\"\",\"purity\":\"sfw\",\"category\":\"anime\",\"dimension_x\":1701,\"dimension_y\":1701,\"resolution\":\"1701x1701\",\"ratio\":\"1\",\"file_size\":4969870,\"file_type\":\"image/png\",\"created_at\":\"2021-11-17 07:05:36\",\"colors\":[\"#ffffff\",\"#e7d8b1\",\"#cccccc\",\"#fdadc7\",\"#999999\"],\"path\":\"https://w.wallhaven.cc/full/72/wallhaven-72lzve.png\",\"thumbs\":{\"large\":\"https://th.wallhaven.cc/lg/72/72lzve.jpg\",\"original\":\"https://th.wallhaven.cc/orig/72/72lzve.jpg\",\"small\":\"https://th.wallhaven.cc/small/72/72lzve.jpg\"}},{\"id\":\"6oy83w\",\"url\":\"https://wallhaven.cc/w/6oy83w\",\"short_url\":\"https://whvn.cc/6oy83w\",\"views\":39,\"favorites\":0,\"source\":\"\",\"purity\":\"sfw\",\"category\":\"anime\",\"dimension_x\":2388,\"dimension_y\":1668,\"resolution\":\"2388x1668\",\"ratio\":\"1.43\",\"file_size\":3611129,\"file_type\":\"image/png\",\"created_at\":\"2021-11-17 07:05:36\",\"colors\":[\"#ffffff\",\"#000000\",\"#996633\",\"#424153\",\"#cccccc\"],\"path\":\"https://w.wallhaven.cc/full/6o/wallhaven-6oy83w.png\",\"thumbs\":{\"large\":\"https://th.wallhaven.cc/lg/6o/6oy83w.jpg\",\"original\":\"https://th.wallhaven.cc/orig/6o/6oy83w.jpg\",\"small\":\"https://th.wallhaven.cc/small/6o/6oy83w.jpg\"}},{\"id\":\"e725gr\",\"url\":\"https://wallhaven.cc/w/e725gr\",\"short_url\":\"https://whvn.cc/e725gr\",\"views\":53,\"favorites\":1,\"source\":\"\",\"purity\":\"sfw\",\"category\":\"anime\",\"dimension_x\":2480,\"dimension_y\":1747,\"resolution\":\"2480x1747\",\"ratio\":\"1.42\",\"file_size\":9264769,\"file_type\":\"image/png\",\"created_at\":\"2021-11-17 07:05:36\",\"colors\":[\"#ffffff\",\"#cc6633\",\"#e7d8b1\",\"#cccccc\",\"#996633\"],\"path\":\"https://w.wallhaven.cc/full/e7/wallhaven-e725gr.png\",\"thumbs\":{\"large\":\"https://th.wallhaven.cc/lg/e7/e725gr.jpg\",\"original\":\"https://th.wallhaven.cc/orig/e7/e725gr.jpg\",\"small\":\"https://th.wallhaven.cc/small/e7/e725gr.jpg\"}},{\"id\":\"g7dy6q\",\"url\":\"https://wallhaven.cc/w/g7dy6q\",\"short_url\":\"https://whvn.cc/g7dy6q\",\"views\":73,\"favorites\":6,\"source\":\"\",\"purity\":\"sfw\",\"category\":\"anime\",\"dimension_x\":1240,\"dimension_y\":1754,\"resolution\":\"1240x1754\",\"ratio\":\"0.71\",\"file_size\":1191921,\"file_type\":\"image/png\",\"created_at\":\"2021-11-17 07:05:36\",\"colors\":[\"#fdadc7\",\"#996633\",\"#ea4c88\",\"#424153\",\"#999999\"],\"path\":\"https://w.wallhaven.cc/full/g7/wallhaven-g7dy6q.png\",\"thumbs\":{\"large\":\"https://th.wallhaven.cc/lg/g7/g7dy6q.jpg\",\"original\":\"https://th.wallhaven.cc/orig/g7/g7dy6q.jpg\",\"small\":\"https://th.wallhaven.cc/small/g7/g7dy6q.jpg\"}},{\"id\":\"z89w6j\",\"url\":\"https://wallhaven.cc/w/z89w6j\",\"short_url\":\"https://whvn.cc/z89w6j\",\"views\":392,\"favorites\":6,\"source\":\"\",\"purity\":\"sfw\",\"category\":\"general\",\"dimension_x\":2560,\"dimension_y\":1440,\"resolution\":\"2560x1440\",\"ratio\":\"1.78\",\"file_size\":5842419,\"file_type\":\"image/png\",\"created_at\":\"2021-11-17 05:41:03\",\"colors\":[\"#999999\",\"#424153\",\"#333399\",\"#663399\",\"#996633\"],\"path\":\"https://w.wallhaven.cc/full/z8/wallhaven-z89w6j.png\",\"thumbs\":{\"large\":\"https://th.wallhaven.cc/lg/z8/z89w6j.jpg\",\"original\":\"https://th.wallhaven.cc/orig/z8/z89w6j.jpg\",\"small\":\"https://th.wallhaven.cc/small/z8/z89w6j.jpg\"}},{\"id\":\"8ojqm1\",\"url\":\"https://wallhaven.cc/w/8ojqm1\",\"short_url\":\"https://whvn.cc/8ojqm1\",\"views\":150,\"favorites\":1,\"source\":\"\",\"purity\":\"sfw\",\"category\":\"general\",\"dimension_x\":1623,\"dimension_y\":959,\"resolution\":\"1623x959\",\"ratio\":\"1.69\",\"file_size\":268073,\"file_type\":\"image/png\",\"created_at\":\"2021-11-17 05:32:30\",\"colors\":[\"#000000\",\"#e7d8b1\",\"#cc6633\",\"#996633\",\"#ffffff\"],\"path\":\"https://w.wallhaven.cc/full/8o/wallhaven-8ojqm1.png\",\"thumbs\":{\"large\":\"https://th.wallhaven.cc/lg/8o/8ojqm1.jpg\",\"original\":\"https://th.wallhaven.cc/orig/8o/8ojqm1.jpg\",\"small\":\"https://th.wallhaven.cc/small/8o/8ojqm1.jpg\"}},{\"id\":\"j3dg7w\",\"url\":\"https://wallhaven.cc/w/j3dg7w\",\"short_url\":\"https://whvn.cc/j3dg7w\",\"views\":208,\"favorites\":1,\"source\":\"\",\"purity\":\"sfw\",\"category\":\"anime\",\"dimension_x\":2880,\"dimension_y\":1620,\"resolution\":\"2880x1620\",\"ratio\":\"1.78\",\"file_size\":2759208,\"file_type\":\"image/png\",\"created_at\":\"2021-11-17 03:58:48\",\"colors\":[\"#cccccc\",\"#e7d8b1\",\"#999999\",\"#ffffff\",\"#996633\"],\"path\":\"https://w.wallhaven.cc/full/j3/wallhaven-j3dg7w.png\",\"thumbs\":{\"large\":\"https://th.wallhaven.cc/lg/j3/j3dg7w.jpg\",\"original\":\"https://th.wallhaven.cc/orig/j3/j3dg7w.jpg\",\"small\":\"https://th.wallhaven.cc/small/j3/j3dg7w.jpg\"}},{\"id\":\"g7dygq\",\"url\":\"https://wallhaven.cc/w/g7dygq\",\"short_url\":\"https://whvn.cc/g7dygq\",\"views\":169,\"favorites\":3,\"source\":\"\",\"purity\":\"sfw\",\"category\":\"anime\",\"dimension_x\":1080,\"dimension_y\":1920,\"resolution\":\"1080x1920\",\"ratio\":\"0.56\",\"file_size\":2399014,\"file_type\":\"image/png\",\"created_at\":\"2021-11-17 03:58:48\",\"colors\":[\"#e7d8b1\",\"#ffffff\",\"#ffcc33\",\"#fdadc7\",\"#cc6633\"],\"path\":\"https://w.wallhaven.cc/full/g7/wallhaven-g7dygq.png\",\"thumbs\":{\"large\":\"https://th.wallhaven.cc/lg/g7/g7dygq.jpg\",\"original\":\"https://th.wallhaven.cc/orig/g7/g7dygq.jpg\",\"small\":\"https://th.wallhaven.cc/small/g7/g7dygq.jpg\"}},{\"id\":\"l3d6py\",\"url\":\"https://wallhaven.cc/w/l3d6py\",\"short_url\":\"https://whvn.cc/l3d6py\",\"views\":143,\"favorites\":1,\"source\":\"\",\"purity\":\"sfw\",\"category\":\"anime\",\"dimension_x\":1850,\"dimension_y\":1375,\"resolution\":\"1850x1375\",\"ratio\":\"1.35\",\"file_size\":805045,\"file_type\":\"image/jpeg\",\"created_at\":\"2021-11-17 03:58:40\",\"colors\":[\"#ffffff\",\"#e7d8b1\",\"#996633\",\"#cc3333\",\"#cc6633\"],\"path\":\"https://w.wallhaven.cc/full/l3/wallhaven-l3d6py.jpg\",\"thumbs\":{\"large\":\"https://th.wallhaven.cc/lg/l3/l3d6py.jpg\",\"original\":\"https://th.wallhaven.cc/orig/l3/l3d6py.jpg\",\"small\":\"https://th.wallhaven.cc/small/l3/l3d6py.jpg\"}},{\"id\":\"rd68z1\",\"url\":\"https://wallhaven.cc/w/rd68z1\",\"short_url\":\"https://whvn.cc/rd68z1\",\"views\":178,\"favorites\":2,\"source\":\"\",\"purity\":\"sfw\",\"category\":\"anime\",\"dimension_x\":1884,\"dimension_y\":1292,\"resolution\":\"1884x1292\",\"ratio\":\"1.46\",\"file_size\":1250507,\"file_type\":\"image/jpeg\",\"created_at\":\"2021-11-17 02:27:39\",\"colors\":[\"#e7d8b1\",\"#ffffff\",\"#996633\",\"#663300\",\"#cc6633\"],\"path\":\"https://w.wallhaven.cc/full/rd/wallhaven-rd68z1.jpg\",\"thumbs\":{\"large\":\"https://th.wallhaven.cc/lg/rd/rd68z1.jpg\",\"original\":\"https://th.wallhaven.cc/orig/rd/rd68z1.jpg\",\"small\":\"https://th.wallhaven.cc/small/rd/rd68z1.jpg\"}},{\"id\":\"9mg1yw\",\"url\":\"https://wallhaven.cc/w/9mg1yw\",\"short_url\":\"https://whvn.cc/9mg1yw\",\"views\":144,\"favorites\":2,\"source\":\"\",\"purity\":\"sfw\",\"category\":\"anime\",\"dimension_x\":2000,\"dimension_y\":1375,\"resolution\":\"2000x1375\",\"ratio\":\"1.45\",\"file_size\":633753,\"file_type\":\"image/jpeg\",\"created_at\":\"2021-11-17 02:27:39\",\"colors\":[\"#ffffff\",\"#e7d8b1\",\"#cc6633\",\"#cc3333\",\"#990000\"],\"path\":\"https://w.wallhaven.cc/full/9m/wallhaven-9mg1yw.jpg\",\"thumbs\":{\"large\":\"https://th.wallhaven.cc/lg/9m/9mg1yw.jpg\",\"original\":\"https://th.wallhaven.cc/orig/9m/9mg1yw.jpg\",\"small\":\"https://th.wallhaven.cc/small/9m/9mg1yw.jpg\"}},{\"id\":\"z89wjj\",\"url\":\"https://wallhaven.cc/w/z89wjj\",\"short_url\":\"https://whvn.cc/z89wjj\",\"views\":161,\"favorites\":1,\"source\":\"\",\"purity\":\"sfw\",\"category\":\"general\",\"dimension_x\":4400,\"dimension_y\":2475,\"resolution\":\"4400x2475\",\"ratio\":\"1.78\",\"file_size\":7445981,\"file_type\":\"image/jpeg\",\"created_at\":\"2021-11-17 02:22:31\",\"colors\":[\"#cccccc\",\"#abbcda\",\"#000000\",\"#999999\",\"#424153\"],\"path\":\"https://w.wallhaven.cc/full/z8/wallhaven-z89wjj.jpg\",\"thumbs\":{\"large\":\"https://th.wallhaven.cc/lg/z8/z89wjj.jpg\",\"original\":\"https://th.wallhaven.cc/orig/z8/z89wjj.jpg\",\"small\":\"https://th.wallhaven.cc/small/z8/z89wjj.jpg\"}},{\"id\":\"8ojqw1\",\"url\":\"https://wallhaven.cc/w/8ojqw1\",\"short_url\":\"https://whvn.cc/8ojqw1\",\"views\":170,\"favorites\":2,\"source\":\"\",\"purity\":\"sfw\",\"category\":\"general\",\"dimension_x\":4400,\"dimension_y\":2475,\"resolution\":\"4400x2475\",\"ratio\":\"1.78\",\"file_size\":6524590,\"file_type\":\"image/jpeg\",\"created_at\":\"2021-11-17 02:22:31\",\"colors\":[\"#ffffff\",\"#cccccc\",\"#abbcda\",\"#999999\",\"#cccc33\"],\"path\":\"https://w.wallhaven.cc/full/8o/wallhaven-8ojqw1.jpg\",\"thumbs\":{\"large\":\"https://th.wallhaven.cc/lg/8o/8ojqw1.jpg\",\"original\":\"https://th.wallhaven.cc/orig/8o/8ojqw1.jpg\",\"small\":\"https://th.wallhaven.cc/small/8o/8ojqw1.jpg\"}},{\"id\":\"j3dgj5\",\"url\":\"https://wallhaven.cc/w/j3dgj5\",\"short_url\":\"https://whvn.cc/j3dgj5\",\"views\":178,\"favorites\":1,\"source\":\"\",\"purity\":\"sfw\",\"category\":\"general\",\"dimension_x\":1920,\"dimension_y\":1080,\"resolution\":\"1920x1080\",\"ratio\":\"1.78\",\"file_size\":3361474,\"file_type\":\"image/jpeg\",\"created_at\":\"2021-11-17 01:39:02\",\"colors\":[\"#663300\",\"#000000\",\"#996633\",\"#660000\",\"#990000\"],\"path\":\"https://w.wallhaven.cc/full/j3/wallhaven-j3dgj5.jpg\",\"thumbs\":{\"large\":\"https://th.wallhaven.cc/lg/j3/j3dgj5.jpg\",\"original\":\"https://th.wallhaven.cc/orig/j3/j3dgj5.jpg\",\"small\":\"https://th.wallhaven.cc/small/j3/j3dgj5.jpg\"}}],\"meta\":{\"current_page\":1,\"last_page\":15305,\"per_page\":24,\"total\":367309,\"query\":\"\",\"seed\":null}}"